[{
    "model": "users.role",
    "pk": 4,
    "fields": {
        "role": "Owner",
        "account": 29,
        "user": 24
    }
}, {
    "model": "users.role",
    "pk": 5,
    "fields": {
        "role": "Owner",
        "account": 30,
        "user": 25
    }
}, {
    "model": "users.role",
    "pk": 7,
    "fields": {
        "role": "Owner",
        "account": 31,
        "user": 27
    }
}, {
    "model": "users.role",
    "pk": 8,
    "fields": {
        "role": "Owner",
        "account": 32,
        "user": 28
    }
}, {
    "model": "users.role",
    "pk": 9,
    "fields": {
        "role": "Operations",
        "account": 30,
        "user": 29
    }
}, {
    "model": "users.role",
    "pk": 10,
    "fields": {
        "role": "Operations",
        "account": 30,
        "user": 30
    }
}, {
    "model": "users.role",
    "pk": 11,
    "fields": {
        "role": "Operations",
        "account": 30,
        "user": 24
    }
}, {
    "model": "users.role",
    "pk": 12,
    "fields": {
        "role": "Operations",
        "account": 30,
        "user": 23
    }
}, {
    "model": "users.role",
    "pk": 13,
    "fields": {
        "role": "Owner",
        "account": 30,
        "user": 31
    }
}, {
    "model": "users.role",
    "pk": 14,
    "fields": {
        "role": "Admin",
        "account": 30,
        "user": 32
    }
}]